SerializerAXI/iladata.vcd
$date
        2020-Apr-24 04:53:44
$end
$version
        Vivado v2019.1 (64-bit)
$end
$timescale
        1ps
$end
$scope module dut $end
$var reg 32 " bd1_i/SerializerAXI_0_m_axis_tdata [31:0] $end
$var reg 4 B bd1_i/SerializerAXI_0_m_axis_tstrb [3:0] $end
$var reg 1 F bd1_i/SerializerAXI_0_m_axis_tlast $end
$var reg 1 G bd1_i/SerializerAXI_0_m_axis_tvalid $end
$var reg 1 H bd1_i/clk_wiz_0_clk_out1 $end
$var reg 1 I _TRIGGER $end
$var reg 1 J _WINDOW $end
$var reg 1 K _GAP $end
$upscope $end
$enddefinitions $end
#0
$dumpvars
b1000 "
b1111 B
0F
1G
1H
0I
1J
0K
$end
#2
0H
#7
b1001 "
1H
#12
0H
#16
1H
#17
b1010 "
#21
0H
#26
b1011 "
1H
#31
0H
#36
b1100 "
1H
#41
0H
#46
b1101 "
1H
#50
0H
#55
1H
#56
b1110 "
#60
0H
#65
b1111 "
1H
#70
0H
#75
b10000 "
1F
1H
#80
0H
#84
1H
#85
b0 "
0F
0G
#89
0H
#94
b1 "
1G
1H
#99
0H
#104
b10 "
1H
#109
0H
#114
b11 "
1H
#118
0H
#123
1H
#124
b100 "
#128
0H
#133
b101 "
1H
#138
0H
#143
b110 "
1H
#148
0H
#153
b111 "
1H
#157
0H
#162
1H
#163
b1000 "
#167
0H
#172
b1001 "
1H
#177
0H
#182
b1010 "
1H
#187
0H
#191
1H
#192
b1011 "
#196
0H
#201
b1100 "
1H
#206
0H
#211
b1101 "
1H
#216
0H
#221
b1110 "
1H
#225
0H
#230
1H
#231
b1111 "
#235
0H
#240
b10000 "
1F
1H
#245
0H
#250
b0 "
0F
0G
1H
#255
0H
#259
1H
#260
b1 "
1G
#264
0H
#269
b11 "
1H
#270
b10 "
#274
0H
#279
b11 "
1H
#284
0H
#289
b100 "
1H
#293
0H
#298
1H
#299
b101 "
#303
0H
#308
b110 "
1H
#313
0H
#318
b111 "
1H
#323
0H
#328
b1000 "
1H
#332
0H
#337
1H
#338
b1001 "
#342
0H
#347
b1010 "
1H
#352
0H
#357
b1011 "
1H
#362
0H
#366
1H
#367
b1100 "
#371
0H
#376
b1101 "
1H
#381
0H
#386
b1110 "
1H
#391
0H
#396
b1111 "
1H
#400
0H
#405
1H
#406
b10000 "
1F
#410
0H
#415
b0 "
0F
0G
1H
#420
0H
#425
b1 "
1G
1H
#430
0H
#434
1H
#435
b10 "
#439
0H
#444
b11 "
1H
#449
0H
#454
b100 "
1H
#459
0H
#464
b101 "
1H
#468
0H
#473
1H
#474
b110 "
#478
0H
#483
b111 "
1H
#488
0H
#493
b1000 "
1H
#498
0H
#503
b1001 "
1H
#507
0H
#512
1H
1I
#513
b1010 "
#517
0H
#522
b1011 "
1H
#527
0H
#532
b1100 "
1H
#537
0H
#541
1H
#542
b1101 "
#546
0H
#551
b1110 "
1H
#556
0H
#561
b1111 "
1H
#566
0H
#571
b10000 "
1F
1H
#575
0H
#580
1H
#581
b0 "
0F
0G
#585
0H
#590
b1 "
1G
1H
#595
0H
#600
b10 "
1H
#605
0H
#609
1H
#610
b11 "
#614
0H
#619
1H
#620
b100 "
#624
0H
#629
b101 "
1H
#634
0H
#639
b110 "
1H
#643
0H
#648
1H
#649
b111 "
#653
0H
#658
b1000 "
1H
#663
0H
#668
b1001 "
1H
#673
0H
#678
b1010 "
1H
#682
0H
#687
1H
#688
b1011 "
#692
0H
#697
b1100 "
1H
#702
0H
#707
b1101 "
1H
#712
0H
#716
1H
#717
b1110 "
#721
0H
#726
b1111 "
1H
#731
0H
#736
b10000 "
1F
1H
#741
0H
#746
b0 "
0F
0G
1H
#750
0H
#755
1H
#756
b1 "
1G
#760
0H
#765
b10 "
1H
#770
0H
#775
b11 "
1H
#780
0H
#784
1H
#785
b100 "
#789
0H
#794
1H
#795
b101 "
#799
0H
#804
b110 "
1H
#809
0H
#814
b111 "
1H
#818
0H
#823
1H
#824
b1000 "
#828
0H
#833
b1001 "
1H
#838
0H
#843
b1010 "
1H
#848
0H
#853
b1011 "
1H
#857
0H
#862
1H
#863
b1100 "
#867
0H
#872
b1101 "
1H
#877
0H
#882
b1110 "
1H
#887
0H
#891
1H
#892
b1111 "
#896
0H
#901
b10100 "
1F
1H
#902
b10000 "
#906
0H
#911
b0 "
0F
0G
1H
#916
0H
#921
b1 "
1G
1H
#925
0H
#930
1H
#931
b10 "
#935
0H
#940
b11 "
1H
#945
0H
#950
b100 "
1H
#955
0H
#959
1H
#960
b101 "
#964
0H
#969
b111 "
1H
#970
b110 "
#974
0H
#979
b111 "
1H
#984
0H
#989
b1000 "
1H
#993
0H
#998
1H
#999
b1001 "
#1003
0H
#1008
b1010 "
1H
#1013
0H
#1018
b1011 "
1H
